# Distributed under the terms of the GNU General Public License v2

# Sam James <sam@gentoo.org> (2021-06-16)
# Drags in several not-yet-stable deps on arm64
# glusterfs: sys-cluster/glusterfs
# rbd: sys-cluster/ceph
# bug #796362
app-emulation/libvirt glusterfs rbd

# Sam James <sam@gentoo.org> (2021-05-28)
# media-gfx/inkscape is not yet stable on arm64
# bug #785685
app-text/dblatex inkscape

# Sam James <sam@gentoo.org> (2021-02-25)
# Roy Bamford <neddyseagoon@gentoo.org> (2021-02-25)
# Dependencies not yet stable, migrated from p.u.m.
app-crypt/qca botan
gnome-base/nautilus previewer

# Sam James <sam@gentoo.org> (2021-02-05)
# Thomas Deutschmann <whissi@gentoo.org> (2017-02-14)
# No lua stable for this arch yet
www-servers/nginx nginx_modules_http_lua

# Sam James <sam@gentoo.org> (2020-12-23)
# Needs stable dev-lang/luajit
kde-apps/cantor lua

# Sam James <sam@gentoo.org> (2020-10-18)
# Needs dev-tex/hevea which isn't stable yet
media-gfx/enblend doc

# Arfrever Frehtes Taifersar Arahesis <arfrever.fta@gmail.com> (2020-10-14)
# app-i18n/fcitx:4 not stable.
media-libs/libsdl2 fcitx4

# Sam James <sam@gentoo.org> (2020-10-06)
# Not yet stable on arm64.
media-plugins/gst-plugins-meta dvb vpx

# Andreas Sturmlechner <asturm@gentoo.org> (2020-10-05)
# media-libs/libffado is not stable yet, which itself has unstable and
# unmaintained/broken dependencies. bug #746722
media-sound/jack2 ieee1394

# Sam James <sam@gentoo.org> (2020-08-19)
# Unstable dependencies for qemu
# bug #738056
app-emulation/qemu smartcard rbd xen virgl
app-emulation/qemu glusterfs io-uring
app-emulation/spice smartcard

# Sam James <sam@gentoo.org> (2020-07-30)
# glslang is not yet stable on arm64
media-libs/mesa vulkan-overlay

# Sam James <sam@gentoo.org> (2020-07-16)
# Needs unstable dev-python/networkx
# bug #732492
app-portage/nattka depgraph-order

# Sam James <sam@gentoo.org> (2020-06-29)
# Deps not yet stable
dev-python/pymongo test
app-shells/bash-completion test
net-misc/ntpsec rclock_oncore rclock_pps
dev-util/bcc test
dev-libs/libisoburn launch-frontend launch-frontend-setuid frontend-optional
net-analyzer/rrdtool rados
sys-fs/multipath-tools rbd
www-servers/uwsgi uwsgi_plugins_rados
dev-libs/boost mpi
media-plugins/gst-plugins-meta aac dts dv lame libvisual taglib vcd wavpack
x11-wm/i3 test
dev-python/ipython nbconvert

# Mikle Kolyada <zlogene@gentoo,org> (2020-03-19)
# deps not yet stable
kde-apps/umbrello php

# Craig Andrews <candrews@gentoo.org> (2019-11-26)
# net-libs/quiche is an early HTTP/3 implementation
# not yet ready for everyone.
net-misc/curl quiche

# Luke Dashjr <luke-jr+gentoobugs@utopios.org> (2019-09-21)
# iasl is keyworded ~arm64
sys-firmware/seabios debug

# Aaron Bauman (2019-07-29)
# app-arch/rar not supported
kde-apps/kdeutils-meta rar

# Aaron Bauman (2019-07-29)
# deps are not stable yet
net-im/pidgin eds

# Aaron Bauman <bman@gentoo.org> (2019-05-20)
# deps are not stable yet
virtual/notification-daemon gnome

# Aaron Bauman <bman@gentoo.org> (2019-05-15)
# packages for these USE flags fail tests
media-libs/opencv contribcvv contribhdf contribsfm glog gstreamer

# Mart Raudsepp <leio@gentoo.org> (2019-01-18)
# Respective x11-drivers/ not tested and stable yet
x11-base/xorg-drivers input_devices_elographics input_devices_joystick input_devices_void video_cards_dummy video_cards_fbdev video_cards_nouveau

# Mart Raudsepp <leio@gentoo.org> (2018-07-24)
# Temporary mask due to test failures in sys-libs/libcxxabi
# and sys-libs/compiler-rt-sanitizers
sys-devel/clang-runtime libcxx sanitize
sys-devel/clang default-libcxx

# Mart Raudsepp <leio@gentoo.org> (2018-05-29)
# sys-devel/clang, dev-libs/xapian, app-text/texlive not stable yet
# USE=doc requires USE=latex
app-doc/doxygen clang doxysearch doc

# Mart Raudsepp <leio@gentoo.org> (2018-05-04)
# sci-libs/mpir fails tests, bug 640424
dev-python/gmpy mpir

# Michał Górny <mgorny@gentoo.org> (2018-04-15)
# Non-stable dependencies.
app-admin/syslog-ng spoof-source
app-text/xmlto latex
sys-auth/pambase pam_krb5 pam_ssh
sys-block/thin-provisioning-tools test
sys-devel/distcc gssapi

# Michał Górny <mgorny@gentoo.org> (2018-02-28)
# Requires masked dependent flags.
net-fs/samba ads

# Michał Górny <mgorny@gentoo.org> (2018-02-19)
# Masked due to unstable deps.
dev-db/redis tcmalloc
net-analyzer/netcat crypt
